%YAML 1.1
%TAG !u! tag:unity3d.com,2011:
--- !u!78 &1
TagManager:
  serializedVersion: 2
  tags:
  - game_plane
  - Card
  - Zombie
  - Zombie Abominio
  - Zombie Corridore
  - Zombie Deambulante
  - Zombie Grassone
  - Zombie Strisciante
  - Door
  - Bear
  - Dan
  - James
  - Jane
  - Joe
  - Laurie
  - Louise
  - Maddie
  - Parker
  - Travis
  - game_tiles
  - player_female
  - player_male
  - card_wound
  layers:
  - Default
  - TransparentFX
  - Ignore Raycast
  - 
  - Water
  - UI
  - 
  - 
  - 
  - 
  - 
  - 
  - 
  - 
  - 
  - 
  - 
  - 
  - 
  - 
  - 
  - 
  - 
  - 
  - 
  - 
  - 
  - 
  - 
  - 
  - 
  - 
  m_SortingLayers:
  - name: Default
    uniqueID: 0
    locked: 0
